{
  "type": "postgres",
  "host": "zaptroco-db-do-user-8806987-0.b.db.ondigitalocean.com",
  "port": 25060,
  "username": "zapadmin",
  "password": "a61zlub0sywiu5v5",
  "database": "zaptroco-db",
  "ssl": {
    "rejectUnauthorized": false
  },
  "entities": ["src/models/**/*.ts"],
  "migrations": ["src/database/migrations/**/*.ts"],
  "cli": {
    "migrationsDir": "src/database/migrations",
    "entitiesDir": "src/models"
  }
}
